hospital,profile_name,report_type,profile_code,lab_section,lab_section_code,parameter,parameter_code,uom,specimen,result_type1,result_type2,gender,age_start,age_end,date_unit,start_range,end_range,range_title,heading
"Allama Iqbal Memorial Hospital, Sialkot",RFT (Renal Function Test),standard,RFT,chemistry,CHEM,Uric Acid,URCACD,mg/dl,blood,decimal,decimal,male,0,16,Years,2,5,02-May,
"Allama Iqbal Memorial Hospital, Sialkot",RFT (Renal Function Test),standard,RFT,chemistry,CHEM,Uric Acid,URCACD,mg/dl,blood,decimal,decimal,female,0,16,Years,2,5,02-May,
"Allama Iqbal Memorial Hospital, Sialkot",RFT (Renal Function Test),standard,RFT,chemistry,CHEM,Uric Acid,URCACD,mg/dl,blood,decimal,decimal,male,17,150,Years,3.5,7.2,3.5-7.2,
"Allama Iqbal Memorial Hospital, Sialkot",RFT (Renal Function Test),standard,RFT,chemistry,CHEM,Uric Acid,URCACD,mg/dl,blood,decimal,decimal,female,17,150,Years,2.6,6,2.6-6,
"Allama Iqbal Memorial Hospital, Sialkot",LFT (Liver Function Test),standard,LFT,chemistry,CHEM,Bilirubin Indirect,BLBIDRT,mg/dl,blood,decimal,decimal,female,0,150,Years,,,,
"Allama Iqbal Memorial Hospital, Sialkot",LFT (Liver Function Test),standard,LFT,chemistry,CHEM,Bilirubin Indirect,BLBIDRT,mg/dl,blood,decimal,decimal,male,0,150,Years,,,,
,,,,,,,,,,,,,,,,,,,
,,,,,,,,,,,,,,,,,,,
,,,,,,,,,,,,,,,,,,,
,,,,,,,,,,,,,,,,,,,
,,,,,,,,,,,,,,,,,,,
,,,,,,,,,,,,,,,,,,,
,,,,,,,,,,,,,,,,,,,
,,,,,,,,,,,,,,,,,,,
,,,,,,,,,,,,,,,,,,,
,,,,,,,,,,,,,,,,,,,
,,,,,,,,,,,,,,,,,,,
,,,,,,,,,,,,,,,,,,,
,,,,,,,,,,,,,,,,,,,
,,,,,,,,,,,,,,,,,,,
,,,,,,,,,,,,,,,,,,,
,,,,,,,,,,,,,,,,,,,
,,,,,,,,,,,,,,,,,,,
,,,,,,,,,,,,,,,,,,,
,,,,,,,,,,,,,,,,,,,
,,,,,,,,,,,,,,,,,,,
,,,,,,,,,,,,,,,,,,,
,,,,,,,,,,,,,,,,,,,
,,,,,,,,,,,,,,,,,,,
,,,,,,,,,,,,,,,,,,,
,,,,,,,,,,,,,,,,,,,
,,,,,,,,,,,,,,,,,,,
,,,,,,,,,,,,,,,,,,,
,,,,,,,,,,,,,,,,,,,
,,,,,,,,,,,,,,,,,,,
,,,,,,,,,,,,,,,,,,,
,,,,,,,,,,,,,,,,,,,
,,,,,,,,,,,,,,,,,,,
,,,,,,,,,,,,,,,,,,,
,,,,,,,,,,,,,,,,,,,
,,,,,,,,,,,,,,,,,,,
,,,,,,,,,,,,,,,,,,,