hospital,profile_name,report_type,profile_code,lab_section,lab_section_code,parameter,parameter_code,uom,specimen,result_type1,result_type2,gender,age_start,age_end,date_unit,start_range,end_range,range_title,heading
"Allama Iqbal Memorial Hospital, Sialkot",DLC,standard,DLC,haematology,haem,Metamyelocytes,DMTM,%,blood,decimal,decimal,male,0,150,Years,,,,
"Allama Iqbal Memorial Hospital, Sialkot",DLC,standard,DLC,haematology,haem,Metamyelocytes,DMTM,%,blood,decimal,decimal,female,0,150,Years,,,,
"Allama Iqbal Memorial Hospital, Sialkot",DLC,standard,DLC,haematology,haem,Neutrophils,DNTR,%,blood,decimal,decimal,male,0,150,Years,40,75,40-75,
"Allama Iqbal Memorial Hospital, Sialkot",DLC,standard,DLC,haematology,haem,Neutrophils,DNTR,%,blood,decimal,decimal,female,0,150,Years,40,75,40-75,
"Allama Iqbal Memorial Hospital, Sialkot",DLC,standard,DLC,haematology,haem,Myelocytes,DMYL,%,blood,decimal,decimal,male,0,150,Years,,,,
"Allama Iqbal Memorial Hospital, Sialkot",DLC,standard,DLC,haematology,haem,Myelocytes,DMYL,%,blood,decimal,decimal,female,0,150,Years,,,,
"Allama Iqbal Memorial Hospital, Sialkot",DLC,standard,DLC,haematology,haem,Lymphocytes,DLMPH,%,blood,decimal,decimal,male,0,150,Years,20,50,20-50,
"Allama Iqbal Memorial Hospital, Sialkot",DLC,standard,DLC,haematology,haem,Lymphocytes,DLMPH,%,blood,decimal,decimal,female,0,150,Years,20,50,20-50,
"Allama Iqbal Memorial Hospital, Sialkot",DLC,standard,DLC,haematology,haem,Pormyelocytes,DPRM,%,blood,decimal,decimal,male,0,150,Years,,,,
"Allama Iqbal Memorial Hospital, Sialkot",DLC,standard,DLC,haematology,haem,Pormyelocytes,DPRM,%,blood,decimal,decimal,female,0,150,Years,,,,
"Allama Iqbal Memorial Hospital, Sialkot",DLC,standard,DLC,haematology,haem,Monocytes,DMNT,%,blood,decimal,decimal,male,0,150,Years,2,10,2-10,
"Allama Iqbal Memorial Hospital, Sialkot",DLC,standard,DLC,haematology,haem,Monocytes,DMNT,%,blood,decimal,decimal,female,0,150,Years,2,10,2-10,
"Allama Iqbal Memorial Hospital, Sialkot",DLC,standard,DLC,haematology,haem,Blast Cells,DBLC,%,blood,decimal,decimal,male,0,150,Years,,,,
"Allama Iqbal Memorial Hospital, Sialkot",DLC,standard,DLC,haematology,haem,Blast Cells,DBLC,%,blood,decimal,decimal,female,0,150,Years,,,,
"Allama Iqbal Memorial Hospital, Sialkot",DLC,standard,DLC,haematology,haem,Eosinophills,DESNP,%,blood,decimal,decimal,male,0,150,Years,1,6,1-6,
"Allama Iqbal Memorial Hospital, Sialkot",DLC,standard,DLC,haematology,haem,Eosinophills,DESNP,%,blood,decimal,decimal,female,0,150,Years,1,6,1-6,
"Allama Iqbal Memorial Hospital, Sialkot",DLC,standard,DLC,haematology,haem,Basophills,DBSPL,%,blood,decimal,decimal,male,0,150,Years,,,,
"Allama Iqbal Memorial Hospital, Sialkot",DLC,standard,DLC,haematology,haem,Basophills,DBSPL,%,blood,decimal,decimal,female,0,150,Years,,,,
"Allama Iqbal Memorial Hospital, Sialkot",E S R ,standard,ESRA,haematology,haem,ESRA,ESRA,mm/1st Hr,blood,decimal,decimal,male,0,150,Years,0,10,0-10,
"Allama Iqbal Memorial Hospital, Sialkot",E S R ,standard,ESRA,haematology,haem,ESRA,ESRA,mm/1st Hr,blood,decimal,decimal,female,0,150,Years,0,12,0-12,
"Allama Iqbal Memorial Hospital, Sialkot",Prothrombin Time (PT),standard,PTTPT,haematology,haem,Prothrombin Time (PT),PTTPT,seconds,blood,decimal,decimal,female,0,150,Years,10,14,10-14,
"Allama Iqbal Memorial Hospital, Sialkot",INR,standard,AIMNR,haematology,haem,INR,AIMNR,,blood,decimal,decimal,female,0,150,Years,,,,
"Allama Iqbal Memorial Hospital, Sialkot",APTT,standard,AMHATT,haematology,haem,APTT,AMHATT,sec,blood,decimal,decimal,female,0,150,Years,26,43,26-43 ,
"Allama Iqbal Memorial Hospital, Sialkot",Prothrombin Time (PT),standard,PTTPT,haematology,haem,Prothrombin Time (PT),PTTPT,seconds,blood,decimal,decimal,male,0,150,Years,10,14,10-14,
"Allama Iqbal Memorial Hospital, Sialkot",INR,standard,AIMNR,haematology,haem,INR,AIMNR,,blood,decimal,decimal,male,0,150,Years,,,,
"Allama Iqbal Memorial Hospital, Sialkot",APTT,standard,AMHATT,haematology,haem,APTT,AMHATT,sec,blood,decimal,decimal,male,0,150,Years,26,43,26-43,
"Allama Iqbal Memorial Hospital, Sialkot",S Folate,standard,SFP,haematology,haem,S Folate,SFLT,ng/ml,blood,decimal,decimal,male,19,150,Years,1.2,8.78,1.2-8.78,
"Allama Iqbal Memorial Hospital, Sialkot",S Folate,standard,SFP,haematology,haem,S Folate,SFLT,ng/ml,blood,decimal,decimal,female,19,150,Years,1.2,7.2,1.2-7.2,
"Allama Iqbal Memorial Hospital, Sialkot",S.Cobalamin,standard,SCBLM,haematology,haem,S.Cobalamin,SCBLM,pg/ml,blood,decimal,decimal,male,19,150,Years,214,864,214-864,
"Allama Iqbal Memorial Hospital, Sialkot",S.Cobalamin,standard,SCBLM,haematology,haem,S.Cobalamin,SCBLM,pg/ml,blood,decimal,decimal,female,19,150,Years,182,820,182-820,
