hospital,profile_name,report_type,profile_code,lab_section,lab_section_code,parameter,parameter_code,uom,specimen,result_type1,result_type2,gender,age_start,age_end,date_unit,start_range,end_range,range_title,heading
"Govt. Sardar Begum Hospital, Sialkot",CRP,standard,CRP,CHEMISTRY,CHEM,CRP,CRP,,blood,string,string,male,0,150,Years,"Positive,Negative","Positive,Negative","Positive,Negative",
"Govt. Sardar Begum Hospital, Sialkot",CRP,standard,CRP,CHEMISTRY,CHEM,CRP,CRP,,blood,string,string,female,0,150,Years,"Positive,Negative","Positive,Negative","Positive,Negative",
"Govt. Sardar Begum Hospital, Sialkot",CRP,standard,CRP,CHEMISTRY,CHEM,Positive CRP,PCRP,mg/l,blood,text_area,text_area,male,0,150,Years,,,,
"Govt. Sardar Begum Hospital, Sialkot",CRP,standard,CRP,CHEMISTRY,CHEM,Positive CRP,PCRP,mg/l,blood,text_area,text_area,female,0,150,Years,,,,
"Govt. Sardar Begum Hospital, Sialkot",Lipid Profile,standard,LPDPR,CHEMISTRY,CHEM,Cholesterol,CHLSTR,mg/dl,blood,decimal,decimal,male,0,150,Years,0,200,0-200,
"Govt. Sardar Begum Hospital, Sialkot",Lipid Profile,standard,LPDPR,CHEMISTRY,CHEM,Cholesterol,CHLSTR,mg/dl,blood,decimal,decimal,female,0,150,Years,0,200,0-200,
"Govt. Sardar Begum Hospital, Sialkot",Lipid Profile,standard,LPDPR,CHEMISTRY,CHEM,Triglycerides,TRGCD,mg/dl,blood,decimal,decimal,male,0,150,Years,0,200,0-200,
"Govt. Sardar Begum Hospital, Sialkot",Lipid Profile,standard,LPDPR,CHEMISTRY,CHEM,Triglycerides,TRGCD,mg/dl,blood,decimal,decimal,female,0,150,Years,0,200,0-200,
"Govt. Sardar Begum Hospital, Sialkot",Lipid Profile,standard,LPDPR,CHEMISTRY,CHEM,HDL,HDL,mg/dl,blood,decimal,decimal,male,0,150,Years,35,50,35-50,
"Govt. Sardar Begum Hospital, Sialkot",Lipid Profile,standard,LPDPR,CHEMISTRY,CHEM,HDL,HDL,mg/dl,blood,decimal,decimal,female,0,150,Years,35,50,35-50,
"Govt. Sardar Begum Hospital, Sialkot",Lipid Profile,standard,LPDPR,CHEMISTRY,CHEM,LDL,LDL,mg/dl,Blood,decimal,decimal,male,0,150,Years,130,160,130-160,
"Govt. Sardar Begum Hospital, Sialkot",Lipid Profile,standard,LPDPR,CHEMISTRY,CHEM,LDL,LDL,mg/dl,blood,decimal,decimal,female,0,150,Years,130,160,130-160,
"Govt. Sardar Begum Hospital, Sialkot",RA Factor,standard,RAFCT,CHEMISTRY,CHEM,RA factor,RFCT,,blood,string,string,male,0,150,Years,"Positive,Negative","Positive,Negative","Positive,Negative",
"Govt. Sardar Begum Hospital, Sialkot",RA Factor,standard,RAFCT,CHEMISTRY,CHEM,RA factor,RFCT,,blood,string,string,female,0,150,Years,"Positive,Negative","Positive,Negative","Positive,Negative",
"Govt. Sardar Begum Hospital, Sialkot",RA Factor,standard,RAFCT,CHEMISTRY,CHEM,RA factor Value,RFCTV,IU/ml,blood,decimal,decimal,male,0,150,Years,0,8,0-8,
"Govt. Sardar Begum Hospital, Sialkot",RA Factor,standard,RAFCT,CHEMISTRY,CHEM,RA factor Value,RFCTV,IU/ml,blood,decimal,decimal,female,0,150,Years,0,8,0-8,
"Govt. Sardar Begum Hospital, Sialkot",Blood Group,standard,BGRP,CHEMISTRY,CHEM,Blood Group,BGRP,,blood,string,string,male,0,150,Years,"A,B,O,AB","A,B,O,AB","A,B,O,AB",
"Govt. Sardar Begum Hospital, Sialkot",Blood Group,standard,BGRP,CHEMISTRY,CHEM,Blood Group,BGRP,,blood,string,string,female,0,150,Years,"A,B,O,AB","A,B,O,AB","A,B,O,AB",
"Govt. Sardar Begum Hospital, Sialkot",Blood Group,standard,BGRP,CHEMISTRY,CHEM,RH factor,RFCT,,blood,string,string,male,0,150,Years,"Positive,Negative","Positive,Negative","Positive,Negative",
"Govt. Sardar Begum Hospital, Sialkot",Blood Group,standard,BGRP,CHEMISTRY,CHEM,RH factor,RFCT,,blood,string,string,female,0,150,Years,"Positive,Negative","Positive,Negative","Positive,Negative",
"Govt. Sardar Begum Hospital, Sialkot",Coombs,standard,CMBS,CHEMISTRY,CHEM,Coombs Direct,CMBSD,,blood,string,string,male,0,150,Years,"Positive,Negative","Positive,Negative","Positive,Negative",
"Govt. Sardar Begum Hospital, Sialkot",Coombs,standard,CMBS,CHEMISTRY,CHEM,Coombs Direct,CMBSD,,blood,string,string,female,0,150,Years,"Positive,Negative","Positive,Negative","Positive,Negative",
"Govt. Sardar Begum Hospital, Sialkot",Coombs,standard,CMBS,CHEMISTRY,CHEM,Coombs indirect,CMBSID,,blood,string,string,male,0,150,Years,"Positive,Negative","Positive,Negative","Positive,Negative",
"Govt. Sardar Begum Hospital, Sialkot",Coombs,standard,CMBS,CHEMISTRY,CHEM,Coombs indirect,CMBSID,,blood,string,string,female,0,150,Years,"Positive,Negative","Positive,Negative","Positive,Negative",
"Govt. Sardar Begum Hospital, Sialkot",serology,standard,SERLG,CHEMISTRY,CHEM,Anti-HCV,AHCV,,blood,string,string,male,0,150,Years,"Positive,Negative ","Positive,Negative","Positive,Negative",
"Govt. Sardar Begum Hospital, Sialkot",serology,standard,SERLG,CHEMISTRY,CHEM,Anti-HCV,AHCV,,blood,string,string,female,0,150,Years,"Positive,Negative","Positive,Negative","Positive,Negative",
"Govt. Sardar Begum Hospital, Sialkot",serology,standard,SERLG,CHEMISTRY,CHEM,HbsAg,HBSAG,,blood,string,string,male,0,150,Years,"Positive,Negative","Positive,Negative","Positive,Negative",
"Govt. Sardar Begum Hospital, Sialkot",serology,standard,SERLG,CHEMISTRY,CHEM,HbsAg,HBSAG,,blood,string,string,female,0,150,Years,"Positive,Negative","Positive,Negative","Positive,Negative",
"Govt. Sardar Begum Hospital, Sialkot",serology,standard,SERLG,CHEMISTRY,CHEM,HIV ,HIV ,,blood,string,string,male,0,150,Years,"Positive,Negative","Positive,Negative","Positive,Negative",
"Govt. Sardar Begum Hospital, Sialkot",serology,standard,SERLG,CHEMISTRY,CHEM,HIV ,HIV ,,blood,string,string,female,0,150,Years,"Positive,Negative","Positive,Negative","Positive,Negative",
"Govt. Sardar Begum Hospital, Sialkot",serology,standard,SERLG,CHEMISTRY,CHEM,VDRL,VDRL,,blood,string,string,male,0,150,Years,"Positive,Negative","Positive,Negative","Positive,Negative",
"Govt. Sardar Begum Hospital, Sialkot",serology,standard,SERLG,CHEMISTRY,CHEM,VDRL,VDRL,,blood,string,string,female,0,150,Years,"Positive,Negative","Positive,Negative","Positive,Negative",
"Govt. Sardar Begum Hospital, Sialkot",Blood Glucose ,standard,BG,CHEMISTRY,CHEM,Blood Glucose (Fasting),BGF,mg/dl,blood,decimal,decimal,male,0,150,Years,0,110,0-110,
"Govt. Sardar Begum Hospital, Sialkot",Blood Glucose ,standard,BG,CHEMISTRY,CHEM,Blood Glucose (Fasting),BGF,mg/dl,blood,decimal,decimal,female,0,150,Years,0,110,0-110,
"Govt. Sardar Begum Hospital, Sialkot",Blood Glucose ,standard,BG,CHEMISTRY,CHEM,Blood Glucose (Random),BGR,mg/dl,blood,decimal,decimal,male,0,150,Years,110,180,110-180,
"Govt. Sardar Begum Hospital, Sialkot",Blood Glucose ,standard,BG,CHEMISTRY,CHEM,Blood Glucose (Random),BGR,mg/dl,blood,decimal,decimal,female,0,150,Years,110,180,110-180,
"Govt. Sardar Begum Hospital, Sialkot",Pregnancy Test,standard,PREGT,CHEMISTRY,CHEM,Pregnancy Test,PREGT,,blood,decimal,decimal,female,0,150,Years,"Positive,Negative","Positive,Negative","Positive,Negative",
"Govt. Sardar Begum Hospital, Sialkot",Mantoux,standard,MNTX,CHEMISTRY,CHEM,Mantoux,MNTX,,blood,decimal,decimal,male,0,150,Years,"Positive,Negative","Positive,Negative","Positive,Negative",
"Govt. Sardar Begum Hospital, Sialkot",Mantoux,standard,MNTX,CHEMISTRY,CHEM,Mantoux,MNTX,,blood,decimal,decimal,female,0,150,Years,"Positive,Negative","Positive,Negative","Positive,Negative",
"Govt. Sardar Begum Hospital, Sialkot",Bio Chemistry ,standard,BCHEM,CHEMISTRY,CHEM,Bilirubin Total,BLBTTL,U/L,blood,decimal,decimal,male,0,150,Years,0,1.0,0-1.0,
"Govt. Sardar Begum Hospital, Sialkot",Bio Chemistry ,standard,BCHEM,CHEMISTRY,CHEM,Bilirubin Total,BLBTTL,U/L,blood,decimal,decimal,female,0,150,Years,0,1.0,0-1.0,
"Govt. Sardar Begum Hospital, Sialkot",Bio Chemistry ,standard,BCHEM,CHEMISTRY,CHEM,ALT (GPT) ,ALT (GPT) ,U/L,blood,decimal,decimal,male,0,150,Years,0,40,0-40,
"Govt. Sardar Begum Hospital, Sialkot",Bio Chemistry ,standard,BCHEM,CHEMISTRY,CHEM,ALT (GPT) ,ALT (GPT) ,U/L,blood,decimal,decimal,female,0,150,Years,0,40,0-40,
"Govt. Sardar Begum Hospital, Sialkot",Bio Chemistry ,standard,BCHEM,CHEMISTRY,CHEM,AST (GOT) ,AST (GOT) ,U/L,blood,decimal,decimal,male,0,150,Years,0,40,0-40,
"Govt. Sardar Begum Hospital, Sialkot",Bio Chemistry ,standard,BCHEM,CHEMISTRY,CHEM,AST (GOT) ,AST (GOT) ,U/L,blood,decimal,decimal,female,0,150,Years,0,40,0-40,
"Govt. Sardar Begum Hospital, Sialkot",Bio Chemistry ,standard,BCHEM,CHEMISTRY,CHEM,ALP (Alk Phosphatase),APHSP,g/dl,blood,decimal,decimal,male,0,15,Years,180,1200,180-1200,
"Govt. Sardar Begum Hospital, Sialkot",Bio Chemistry ,standard,BCHEM,CHEMISTRY,CHEM,ALP (Alk Phosphatase),APHSP,g/dl,blood,decimal,decimal,female,0,15,Years,180,1200,180-1200,
"Govt. Sardar Begum Hospital, Sialkot",Bio Chemistry ,standard,BCHEM,CHEMISTRY,CHEM,ALP (Alk Phosphatase),APHSP,g/dl,blood,decimal,decimal,male,16,150,Years,65,306,65-306,
"Govt. Sardar Begum Hospital, Sialkot",Bio Chemistry ,standard,BCHEM,CHEMISTRY,CHEM,ALP (Alk Phosphatase),APHSP,g/dl,blood,decimal,decimal,female,16,150,Years,65,306,65-306,
"Govt. Sardar Begum Hospital, Sialkot",Bio Chemistry ,standard,BCHEM,CHEMISTRY,CHEM,Albumin,ALBMN,mg/dl,blood,decimal,decimal,male,0,150,Years,3.2,5.5,3.2-5.5,
"Govt. Sardar Begum Hospital, Sialkot",Bio Chemistry ,standard,BCHEM,CHEMISTRY,CHEM,Albumin,ALBMN,mg/dl,blood,decimal,decimal,female,0,150,Years,3.2,5.5,3.2-5.5,
"Govt. Sardar Begum Hospital, Sialkot",Bio Chemistry ,standard,BCHEM,CHEMISTRY,CHEM,Blood Urea,BUREA,mg/dl,blood,decimal,decimal,male,0,150,Years,20,40,20-40,
"Govt. Sardar Begum Hospital, Sialkot",Bio Chemistry ,standard,BCHEM,CHEMISTRY,CHEM,Blood Urea,BUREA,mg/dl,blood,decimal,decimal,female,0,150,Years,20,40,20-40,
"Govt. Sardar Begum Hospital, Sialkot",Bio Chemistry ,standard,BCHEM,CHEMISTRY,CHEM,Creatinine,CRTN,mg/dl,blood,decimal,decimal,male,0,150,Years,0.7,1.2,0.7-1.2,
"Govt. Sardar Begum Hospital, Sialkot",Bio Chemistry ,standard,BCHEM,CHEMISTRY,CHEM,Creatinine,CRTN,mg/dl,blood,decimal,decimal,female,0,150,Years,0.7,1.2,0.7-1.2,
"Govt. Sardar Begum Hospital, Sialkot",Bio Chemistry ,standard,BCHEM,CHEMISTRY,CHEM,Uric Acid,URCACD,mg/dl,blood,decimal,decimal,male,0,150,Years,1.5,5.0,1.5-5.0,
"Govt. Sardar Begum Hospital, Sialkot",Bio Chemistry ,standard,BCHEM,CHEMISTRY,CHEM,Uric Acid,URCACD,mg/dl,blood,decimal,decimal,female,0,150,Years,1.5,5.0,1.5-5.0,
"Govt. Sardar Begum Hospital, Sialkot",Bio Chemistry ,standard,BCHEM,CHEMISTRY,CHEM,Blood Glucose (Random),BGR,mg/dl,blood,decimal,decimal,male,0,150,Years,120,180,120-180,
"Govt. Sardar Begum Hospital, Sialkot",Bio Chemistry ,standard,BCHEM,CHEMISTRY,CHEM,Blood Glucose (Random),BGR,mg/dl,blood,decimal,decimal,female,0,150,Years,120,180,120-180,
"Govt. Sardar Begum Hospital, Sialkot",Urine Complete Examination ,standard,UCE,CHEMISTRY,CHEM,Appearance,APER,,Urine,text_area,text_area,male,0,150,Years,,,,
"Govt. Sardar Begum Hospital, Sialkot",Urine Complete Examination ,standard,UCE,CHEMISTRY,CHEM,Appearance,APER,,Urine,text_area,text_area,female,0,150,Years,,,,
"Govt. Sardar Begum Hospital, Sialkot",Urine Complete Examination ,standard,UCE,CHEMISTRY,CHEM,Colour,CLR,,Urine,string,string,male,0,150,Years,"Yellow,Light Yellow,Dark Yellow,Pale Yellow,Reddish,Deep Yellow","Yellow,Light Yellow,Dark Yellow,Pale Yellow,Reddish,Deep Yellow","Yellow,Light Yellow,Dark Yellow,Pale Yellow,Reddish,Deep Yellow",
"Govt. Sardar Begum Hospital, Sialkot",Urine Complete Examination ,standard,UCE,CHEMISTRY,CHEM,Colour,CLR,,Urine,string,string,female,0,150,Years,"Yellow,Light Yellow,Dark Yellow,Pale Yellow,Reddish,Deep Yellow","Yellow,Light Yellow,Dark Yellow,Pale Yellow,Reddish,Deep Yellow","Yellow,Light Yellow,Dark Yellow,Pale Yellow,Reddish,Deep Yellow",
"Govt. Sardar Begum Hospital, Sialkot",Urine Complete Examination ,standard,UCE,CHEMISTRY,CHEM,Specific Gravity,SPG,,Urine,text_area,text_area,male,0,150,Years,,,,
"Govt. Sardar Begum Hospital, Sialkot",Urine Complete Examination ,standard,UCE,CHEMISTRY,CHEM,Specific Gravity,SPG,,Urine,text_area,text_area,female,0,150,Years,,,,
"Govt. Sardar Begum Hospital, Sialkot",Urine Complete Examination ,standard,UCE,CHEMISTRY,CHEM,pH,PH,,Urine,text_area,text_area,male,0,150,Years,,,,
"Govt. Sardar Begum Hospital, Sialkot",Urine Complete Examination ,standard,UCE,CHEMISTRY,CHEM,pH,PH,,Urine,text_area,text_area,female,0,150,Years,,,,
"Govt. Sardar Begum Hospital, Sialkot",Urine Complete Examination ,standard,UCE,CHEMISTRY,CHEM,Glucose,GLCS,,Urine,string,string,male,0,150,Years,"Nil,+,++,+++,++++","Nil,+,++,+++,++++","Nil,+,++,+++,++++",
"Govt. Sardar Begum Hospital, Sialkot",Urine Complete Examination ,standard,UCE,CHEMISTRY,CHEM,Glucose,GLCS,,Urine,string,string,female,0,150,Years,"Nil,+,++,+++,++++","Nil,+,++,+++,++++","Nil,+,++,+++,++++",
"Govt. Sardar Begum Hospital, Sialkot",Urine Complete Examination ,standard,UCE,CHEMISTRY,CHEM,Protien,PRTN,,Urine,string,string,male,0,150,Years,"Nil,+,++,+++,++++","Nil,+,++,+++,++++","Nil,+,++,+++,++++",
"Govt. Sardar Begum Hospital, Sialkot",Urine Complete Examination ,standard,UCE,CHEMISTRY,CHEM,Protien,PRTN,,Urine,string,string,female,0,150,Years,"Nil,+,++,+++,++++","Nil,+,++,+++,++++","Nil,+,++,+++,++++",
"Govt. Sardar Begum Hospital, Sialkot",Urine Complete Examination ,standard,UCE,CHEMISTRY,CHEM,Ketone Bodies,KTBD,,Urine,string,string,male,0,150,Years,"Nil,+,++,+++,++++","Nil,+,++,+++,++++","Nil,+,++,+++,++++",
"Govt. Sardar Begum Hospital, Sialkot",Urine Complete Examination ,standard,UCE,CHEMISTRY,CHEM,Ketone Bodies,KTBD,,Urine,string,string,female,0,150,Years,"Nil,+,++,+++,++++","Nil,+,++,+++,++++","Nil,+,++,+++,++++",
"Govt. Sardar Begum Hospital, Sialkot",Urine Complete Examination ,standard,UCE,CHEMISTRY,CHEM,Blood,BLD,,Urine,string,string,male,0,150,Years,"Nil,+,++,+++,++++","Nil,+,++,+++,++++","Nil,+,++,+++,++++",
"Govt. Sardar Begum Hospital, Sialkot",Urine Complete Examination ,standard,UCE,CHEMISTRY,CHEM,Blood,BLD,,Urine,string,string,female,0,150,Years,"Nil,+,++,+++,++++","Nil,+,++,+++,++++","Nil,+,++,+++,++++",
"Govt. Sardar Begum Hospital, Sialkot",Urine Complete Examination ,standard,UCE,CHEMISTRY,CHEM,Bilirubin,BLRB,,Urine,string,string,male,0,150,Years,"Nil,+,++,+++,++++","Nil,+,++,+++,++++","Nil,+,++,+++,++++",
"Govt. Sardar Begum Hospital, Sialkot",Urine Complete Examination ,standard,UCE,CHEMISTRY,CHEM,Bilirubin,BLRB,,Urine,string,string,female,0,150,Years,"Nil,+,++,+++,++++","Nil,+,++,+++,++++","Nil,+,++,+++,++++",
"Govt. Sardar Begum Hospital, Sialkot",Urine Complete Examination ,standard,UCE,CHEMISTRY,CHEM,Bile Pigment,BPIGM,,Urine,string,string,male,0,150,Years,"Nil,+,++,+++,++++","Nil,+,++,+++,++++","Nil,+,++,+++,++++",
"Govt. Sardar Begum Hospital, Sialkot",Urine Complete Examination ,standard,UCE,CHEMISTRY,CHEM,Bile Pigment,BPIGM,,Urine,string,string,female,0,150,Years,"Nil,+,++,+++,++++","Nil,+,++,+++,++++","Nil,+,++,+++,++++",
"Govt. Sardar Begum Hospital, Sialkot",Urine Complete Examination ,standard,UCE,CHEMISTRY,CHEM,Urobilinogen,URGN,,Urine,text_area,text_area,male,0,150,Years,,,,
"Govt. Sardar Begum Hospital, Sialkot",Urine Complete Examination ,standard,UCE,CHEMISTRY,CHEM,Urobilinogen,URGN,,Urine,text_area,text_area,female,0,150,Years,,,,
"Govt. Sardar Begum Hospital, Sialkot",Urine Complete Examination ,standard,UCE,CHEMISTRY,CHEM,Nitrate,NTRT,,Urine,string,string,male,0,150,Years,"Nil,+,++,+++,++++","Nil,+,++,+++,++++","Nil,+,++,+++,++++",
"Govt. Sardar Begum Hospital, Sialkot",Urine Complete Examination ,standard,UCE,CHEMISTRY,CHEM,Nitrate,NTRT,,Urine,string,string,female,0,150,Years,"Nil,+,++,+++,++++","Nil,+,++,+++,++++","Nil,+,++,+++,++++",
"Govt. Sardar Begum Hospital, Sialkot",Urine Complete Examination ,standard,UCE,CHEMISTRY,CHEM,RBC,RBC,,Urine,string,string,male,0,150,Years,"Nil,+,++,+++,++++","Nil,+,++,+++,++++","Nil,+,++,+++,++++",
"Govt. Sardar Begum Hospital, Sialkot",Urine Complete Examination ,standard,UCE,CHEMISTRY,CHEM,RBC,RBC,,Urine,string,string,female,0,150,Years,"Nil,+,++,+++,++++","Nil,+,++,+++,++++","Nil,+,++,+++,++++",
"Govt. Sardar Begum Hospital, Sialkot",Urine Complete Examination ,standard,UCE,CHEMISTRY,CHEM,Leucocytes,LCOT,,Urine,text_area,text_area,male,0,150,Years,,,,
"Govt. Sardar Begum Hospital, Sialkot",Urine Complete Examination ,standard,UCE,CHEMISTRY,CHEM,Leucocytes,LCOT,,Urine,text_area,text_area,female,0,150,Years,,,,
"Govt. Sardar Begum Hospital, Sialkot",Urine Complete Examination ,standard,UCE,CHEMISTRY,CHEM,Epithelial,EPTL,,Urine,string,string,male,0,150,Years,"Nil,+,++,+++,++++","Nil,+,++,+++,++++","Nil,+,++,+++,++++",
"Govt. Sardar Begum Hospital, Sialkot",Urine Complete Examination ,standard,UCE,CHEMISTRY,CHEM,Epithelial,EPTL,,Urine,string,string,female,0,150,Years,"Nil,+,++,+++,++++","Nil,+,++,+++,++++","Nil,+,++,+++,++++",
"Govt. Sardar Begum Hospital, Sialkot",Urine Complete Examination ,standard,UCE,CHEMISTRY,CHEM,Others,OTR,,Urine,text_area,text_area,male,0,150,Years,,,,
"Govt. Sardar Begum Hospital, Sialkot",Urine Complete Examination ,standard,UCE,CHEMISTRY,CHEM,Others,OTR,,Urine,text_area,text_area,female,0,150,Years,,,,
"Govt. Sardar Begum Hospital, Sialkot",Urine Complete Examination ,standard,UCE,CHEMISTRY,CHEM,Hyaline Cast,HYCST,,Urine,string,string,male,0,150,Years,"Nil,+,++,+++,++++","Nil,+,++,+++,++++","Nil,+,++,+++,++++",
"Govt. Sardar Begum Hospital, Sialkot",Urine Complete Examination ,standard,UCE,CHEMISTRY,CHEM,Hyaline Cast,HYCST,,Urine,string,string,female,0,150,Years,"Nil,+,++,+++,++++","Nil,+,++,+++,++++","Nil,+,++,+++,++++",
"Govt. Sardar Begum Hospital, Sialkot",Urine Complete Examination ,standard,UCE,CHEMISTRY,CHEM,Granular Cast,GLCST,,Urine,string,string,male,0,150,Years,"Nil,+,++,+++,++++","Nil,+,++,+++,++++","Nil,+,++,+++,++++",
"Govt. Sardar Begum Hospital, Sialkot",Urine Complete Examination ,standard,UCE,CHEMISTRY,CHEM,Granular Cast,GLCST,,Urine,string,string,female,0,150,Years,"Nil,+,++,+++,++++","Nil,+,++,+++,++++","Nil,+,++,+++,++++",
"Govt. Sardar Begum Hospital, Sialkot",Urine Complete Examination ,standard,UCE,CHEMISTRY,CHEM,Calcium oxilate,CALOX,,Urine,string,string,male,0,150,Years,"Nil,+,++,+++,++++","Nil,+,++,+++,++++","Nil,+,++,+++,++++",
"Govt. Sardar Begum Hospital, Sialkot",Urine Complete Examination ,standard,UCE,CHEMISTRY,CHEM,Calcium oxilate,CALOX,,Urine,string,string,female,0,150,Years,"Nil,+,++,+++,++++","Nil,+,++,+++,++++","Nil,+,++,+++,++++",
"Govt. Sardar Begum Hospital, Sialkot",Urine Complete Examination ,standard,UCE,CHEMISTRY,CHEM,Uric Acid Crystals,UAC,,Urine,string,string,male,0,150,Years,"Nil,+,++,+++,++++","Nil,+,++,+++,++++","Nil,+,++,+++,++++",
"Govt. Sardar Begum Hospital, Sialkot",Urine Complete Examination ,standard,UCE,CHEMISTRY,CHEM,Uric Acid Crystals,UAC,,Urine,string,string,female,0,150,Years,"Nil,+,++,+++,++++","Nil,+,++,+++,++++","Nil,+,++,+++,++++",
"Govt. Sardar Begum Hospital, Sialkot",Routine Stool Analysis,standard,RSA,CHEMISTRY,CHEM,Appearance,RAPER,,Stool,string,string,male,0,150,Years,"Brown,Light Brown,Yellow,Gray,Greenish,Dark Red,Black","Brown,Light Brown,Yellow,Gray,Greenish,Dark Red,Black","Brown,Light Brown,Yellow,Gray,Greenish,Dark Red,Black",
"Govt. Sardar Begum Hospital, Sialkot",Routine Stool Analysis,standard,RSA,CHEMISTRY,CHEM,Appearance,RAPER,,Stool,string,string,female,0,150,Years,"Brown,Light Brown,Yellow,Gray,Greenish,Dark Red,Black","Brown,Light Brown,Yellow,Gray,Greenish,Dark Red,Black","Brown,Light Brown,Yellow,Gray,Greenish,Dark Red,Black",
"Govt. Sardar Begum Hospital, Sialkot",Routine Stool Analysis,standard,RSA,CHEMISTRY,CHEM,Consistency,RCCNS,,Stool,string,string,male,0,150,Years,"Formed,Unformed,Solid,Hard,Loose,Watery,Rice Watery","Formed,Unformed,Solid,Hard,Loose,Watery,Rice Watery","Formed,Unformed,Solid,Hard,Loose,Watery,Rice Watery",
"Govt. Sardar Begum Hospital, Sialkot",Routine Stool Analysis,standard,RSA,CHEMISTRY,CHEM,Consistency,RCCNS,,Stool,string,string,female,0,150,Years,"Formed,Unformed,Solid,Hard,Loose,Watery,Rice Watery","Formed,Unformed,Solid,Hard,Loose,Watery,Rice Watery","Formed,Unformed,Solid,Hard,Loose,Watery,Rice Watery",
"Govt. Sardar Begum Hospital, Sialkot",Routine Stool Analysis,standard,RSA,CHEMISTRY,CHEM,Occult Blood,ROTBLD,,Stool,string,string,male,0,150,Years,"Negative,Positive","Negative,Positive","Negative,Positive",
"Govt. Sardar Begum Hospital, Sialkot",Routine Stool Analysis,standard,RSA,CHEMISTRY,CHEM,Occult Blood,ROTBLD,,Stool,string,string,female,0,150,Years,"Negative,Positive","Negative,Positive","Negative,Positive",
"Govt. Sardar Begum Hospital, Sialkot",Routine Stool Analysis,standard,RSA,CHEMISTRY,CHEM,Mucus,RMCS,,Stool,string,string,male,0,150,Years,"Nil,+,++,+++,++++","Nil,+,++,+++,++++","Nil,+,++,+++,++++",
"Govt. Sardar Begum Hospital, Sialkot",Routine Stool Analysis,standard,RSA,CHEMISTRY,CHEM,Mucus,RMCS,,Stool,string,string,female,0,150,Years,"Nil,+,++,+++,++++","Nil,+,++,+++,++++","Nil,+,++,+++,++++",
"Govt. Sardar Begum Hospital, Sialkot",Routine Stool Analysis,standard,RSA,CHEMISTRY,CHEM,Visible Mucus,RVMCS,,Stool,string,string,male,0,150,Years,"Nil,+,++,+++,++++","Nil,+,++,+++,++++","Nil,+,++,+++,++++",
"Govt. Sardar Begum Hospital, Sialkot",Routine Stool Analysis,standard,RSA,CHEMISTRY,CHEM,Visible Mucus,RVMCS,,Stool,string,string,female,0,150,Years,"Nil,+,++,+++,++++","Nil,+,++,+++,++++","Nil,+,++,+++,++++",
"Govt. Sardar Begum Hospital, Sialkot",Routine Stool Analysis,standard,RSA,CHEMISTRY,CHEM,Worms,RWRM,,Stool,string,string,male,0,150,Years,"Nil,+,++,+++,++++","Nil,+,++,+++,++++","Nil,+,++,+++,++++",
"Govt. Sardar Begum Hospital, Sialkot",Routine Stool Analysis,standard,RSA,CHEMISTRY,CHEM,Worms,RWRM,,Stool,string,string,female,0,150,Years,"Nil,+,++,+++,++++","Nil,+,++,+++,++++","Nil,+,++,+++,++++",
"Govt. Sardar Begum Hospital, Sialkot",Routine Stool Analysis,standard,RSA,CHEMISTRY,CHEM,Epithilial Cells,REPTLC,,Stool,string,string,male,0,150,Years,"Nil,+,++,+++,++++","Nil,+,++,+++,++++","Nil,+,++,+++,++++",
"Govt. Sardar Begum Hospital, Sialkot",Routine Stool Analysis,standard,RSA,CHEMISTRY,CHEM,Epithilial Cells,REPTLC,,Stool,string,string,female,0,150,Years,"Nil,+,++,+++,++++","Nil,+,++,+++,++++","Nil,+,++,+++,++++",
"Govt. Sardar Begum Hospital, Sialkot",Routine Stool Analysis,standard,RSA,CHEMISTRY,CHEM,Pus Cells,RPCL,,Stool,string,string,male,0,150,Years,"Nil,+,++,+++,++++","Nil,+,++,+++,++++","Nil,+,++,+++,++++",
"Govt. Sardar Begum Hospital, Sialkot",Routine Stool Analysis,standard,RSA,CHEMISTRY,CHEM,Pus Cells,RPCL,,Stool,string,string,female,0,150,Years,"Nil,+,++,+++,++++","Nil,+,++,+++,++++","Nil,+,++,+++,++++",
"Govt. Sardar Begum Hospital, Sialkot",Routine Stool Analysis,standard,RSA,CHEMISTRY,CHEM,RBCs,RRBC,,Stool,string,string,male,0,150,Years,"Nil,+,++,+++,++++","Nil,+,++,+++,++++","Nil,+,++,+++,++++",
"Govt. Sardar Begum Hospital, Sialkot",Routine Stool Analysis,standard,RSA,CHEMISTRY,CHEM,RBCs,RRBC,,Stool,string,string,female,0,150,Years,"Nil,+,++,+++,++++","Nil,+,++,+++,++++","Nil,+,++,+++,++++",
"Govt. Sardar Begum Hospital, Sialkot",Routine Stool Analysis,standard,RSA,CHEMISTRY,CHEM,Entameoba Histolytics,RETHT,,Stool,string,string,male,0,150,Years,"Nil,+,++,+++,++++","Nil,+,++,+++,++++","Nil,+,++,+++,++++",
"Govt. Sardar Begum Hospital, Sialkot",Routine Stool Analysis,standard,RSA,CHEMISTRY,CHEM,Entameoba Histolytics,RETHT,,Stool,string,string,female,0,150,Years,"Nil,+,++,+++,++++","Nil,+,++,+++,++++","Nil,+,++,+++,++++",
"Govt. Sardar Begum Hospital, Sialkot",Routine Stool Analysis,standard,RSA,CHEMISTRY,CHEM,Giardia Lamblia,RGDLB,,Stool,string,string,male,0,150,Years,"Nil,+,++,+++,++++","Nil,+,++,+++,++++","Nil,+,++,+++,++++",
"Govt. Sardar Begum Hospital, Sialkot",Routine Stool Analysis,standard,RSA,CHEMISTRY,CHEM,Giardia Lamblia,RGDLB,,Stool,string,string,female,0,150,Years,"Nil,+,++,+++,++++","Nil,+,++,+++,++++","Nil,+,++,+++,++++",
"Govt. Sardar Begum Hospital, Sialkot",Routine Stool Analysis,standard,RSA,CHEMISTRY,CHEM,Tenia Sainata,RTNSN,,Stool,string,string,male,0,150,Years,"Nil,+,++,+++,++++","Nil,+,++,+++,++++","Nil,+,++,+++,++++",
"Govt. Sardar Begum Hospital, Sialkot",Routine Stool Analysis,standard,RSA,CHEMISTRY,CHEM,Tenia Sainata,RTNSN,,Stool,string,string,female,0,150,Years,"Nil,+,++,+++,++++","Nil,+,++,+++,++++","Nil,+,++,+++,++++",
"Govt. Sardar Begum Hospital, Sialkot",Routine Stool Analysis,standard,RSA,CHEMISTRY,CHEM,Hymenolepis Nana,RHNNN,,Stool,string,string,male,0,150,Years,"Nil,+,++,+++,++++","Nil,+,++,+++,++++","Nil,+,++,+++,++++",
"Govt. Sardar Begum Hospital, Sialkot",Routine Stool Analysis,standard,RSA,CHEMISTRY,CHEM,Hymenolepis Nana,RHNNN,,Stool,string,string,female,0,150,Years,"Nil,+,++,+++,++++","Nil,+,++,+++,++++","Nil,+,++,+++,++++",
"Govt. Sardar Begum Hospital, Sialkot",Routine Stool Analysis,standard,RSA,CHEMISTRY,CHEM,Ascaris Lumbricoides,RASLS,,Stool,string,string,male,0,150,Years,"Nil,+,++,+++,++++","Nil,+,++,+++,++++","Nil,+,++,+++,++++",
"Govt. Sardar Begum Hospital, Sialkot",Routine Stool Analysis,standard,RSA,CHEMISTRY,CHEM,Ascaris Lumbricoides,RASLS,,Stool,string,string,female,0,150,Years,"Nil,+,++,+++,++++","Nil,+,++,+++,++++","Nil,+,++,+++,++++",
"Govt. Sardar Begum Hospital, Sialkot",Routine Stool Analysis,standard,RSA,CHEMISTRY,CHEM,Entrobius Vermiculairs,RESVS,,Stool,string,string,male,0,150,Years,"Nil,+,++,+++,++++","Nil,+,++,+++,++++","Nil,+,++,+++,++++",
"Govt. Sardar Begum Hospital, Sialkot",Routine Stool Analysis,standard,RSA,CHEMISTRY,CHEM,Entrobius Vermiculairs,RESVS,,Stool,string,string,female,0,150,Years,"Nil,+,++,+++,++++","Nil,+,++,+++,++++","Nil,+,++,+++,++++",
"Govt. Sardar Begum Hospital, Sialkot",Routine Stool Analysis,standard,RSA,CHEMISTRY,CHEM,Trichuris Trichra,RTSTA,,Stool,string,string,male,0,150,Years,"Nil,+,++,+++,++++","Nil,+,++,+++,++++","Nil,+,++,+++,++++",
"Govt. Sardar Begum Hospital, Sialkot",Routine Stool Analysis,standard,RSA,CHEMISTRY,CHEM,Trichuris Trichra,RTSTA,,Stool,string,string,female,0,150,Years,"Nil,+,++,+++,++++","Nil,+,++,+++,++++","Nil,+,++,+++,++++",
"Govt. Sardar Begum Hospital, Sialkot",Routine Stool Analysis,standard,RSA,CHEMISTRY,CHEM,Others,ROTR,,Stool,string,string,male,0,150,Years,"Nil,+,++,+++,++++","Nil,+,++,+++,++++","Nil,+,++,+++,++++",
"Govt. Sardar Begum Hospital, Sialkot",Routine Stool Analysis,standard,RSA,CHEMISTRY,CHEM,Others,ROTR,,Stool,string,string,female,0,150,Years,"Nil,+,++,+++,++++","Nil,+,++,+++,++++","Nil,+,++,+++,++++",
"Govt. Sardar Begum Hospital, Sialkot",Routine Stool Analysis,standard,RSA,CHEMISTRY,CHEM,Remarks,RRMK,,Stool,text_area,text_area,male,0,150,Years,,,,
"Govt. Sardar Begum Hospital, Sialkot",Routine Stool Analysis,standard,RSA,CHEMISTRY,CHEM,Remarks,RRMK,,Stool,text_area,text_area,female,0,150,Years,,,,
